[
  {
    "_id": {"$oid": "55d2db06f4811f83a1f27be8"},
    "event_tag_name": "event-tag-name",
    "title": "Brazil",
    "contact_info": {
      "event_created_by": "admin@hydevents.com",
      "Mobile": "9966828280",
      "Website":"http://www.hyderabadevents.com/createadvancelist/editadvancedlist/1259",
      "Name": "Manager",
      "Facebook": "https://www.facebook.com/hyderabadeventsofficial/",
      "Address": "Eenadu Complex, Somajiguda, Hyderabad - 500082 (Map)",
      "Email": "Contact@hyderabadevents.com"
    },
    "event_info" : {
      "event_logo": "https://www.hyderabadevents.com/assets/uploads/1cd82a997e7bd757b96dccc55ab34a2b.jpg",
      "about": "It's a small world and events happening miles away can be watched and enjoyed sitting in our cozy homes. Media promotions are done through Print media, Electronic media, Frequency media etc and reviews are promoted instantly on social media. Hyderabad Events helps you cover your event in whatever way you want be it live coverage or slotted coverage, related articles or on FM, name it and we have it for you. In print media, we are tied up with all the popular media giants in Hyderabad so we can post related articles in main news, business events or as entertainment news based on the event."
    },
    "source_id": {"$oid": "5b8514e4d327833a6d838e17"}
  },
  {
    "_id": {"$oid": "55d2db06f4811f83a1f27be9"},
    "event_tag_name": "event-tag-namef",
    "title": "Bfrazil",
    "contact_info": {
      "event_created_by": "admin@hydevents.com",
      "Mobile": "9966828280",
      "Website":"http://www.hyderabadevents.com/createadvancelist/editadvancedlist/1259",
      "Name": "Manager",
      "Facebook": "https://www.facebook.com/hyderabadeventsofficial/",
      "Address": "Eenadu Complex, Somajiguda, Hyderabad - 500082 (Map)",
      "Email": "Contact@hyderabadevents.com"
    },
    "event_info" : {
      "event_logo": "https://www.hyderabadevents.com/assets/uploads/1cd82a997e7bd757b96dccc55ab34a2b.jpg",
      "about": "It's a small world and events happening miles away can be watched and enjoyed sitting in our cozy homes. Media promotions are done through Print media, Electronic media, Frequency media etc and reviews are promoted instantly on social media. Hyderabad Events helps you cover your event in whatever way you want be it live coverage or slotted coverage, related articles or on FM, name it and we have it for you. In print media, we are tied up with all the popular media giants in Hyderabad so we can post related articles in main news, business events or as entertainment news based on the event."
    },
    "source_id": {"$oid": "5b8514e4d327833a6d838e17"}
  }
]

